{
    "results": [{
        "id": "8bf2f16c-62a9-42f2-bfe4-f850310b23fd",
        "nombre": "Angel",
        "direccion": "Chullunquiani",
        "fecha_nac": "2016-12-06",
        "created_at": "2016-11-29T17:45:18Z",
        "updated_at": "2016-12-05T17:51:04Z"
    }, {
        "id": "3b7b738e-36b0-421f-9c74-5c8267449ee3",
        "nombre": "Milva",
        "direccion": null,
        "fecha_nac": "2016-12-01",
        "created_at": "2016-12-05T00:11:36Z",
        "updated_at": "2016-12-05T00:11:36Z"
    }],
    "options": {
        "page": 2,
        "count": 4,
        "range": "1 - 2 of 4 items",
        "previous": 1,
        "page_size": 2,
        "next": 2,
        "pages": 2
    }
}
